…
quanttable

##         prop      male    female   fulltotal          gap year
## 1 0.00000226 0.3335607 0.3337223    105.2110 7.172815e-05 1880
## 2 0.00000418 0.4191630 0.4096346    478.4376 8.542131e-02 1952
## 3 0.00000768 0.5077381 0.4922619   1210.9546 1.721365e-01 1986
## 4 0.00002043 0.5903654 0.5808370   3541.6767 2.590705e-01 2004
## 5 0.00696659 0.6662777 0.6664393 180675.3281 3.328785e-01 2017

Maximum Values for each variable in each year gruped by name

fullnamesmax

## # A tibble: 919 x 8
##    name     year sex         prop male_share female_share    gap fulltotal
##    <chr>   <dbl> <chr>      <dbl>      <dbl>        <dbl>  <dbl>     <dbl>
##  1 Aalijah  2017 M     0.0000103       0.585        0.415 0.170       248.
##  2 Aamari   2017 M     0.0000074       0.564        0.436 0.128       154.
##  3 Aarin    2017 M     0.0000199       0.588        0.412 0.176       732.
##  4 Aaryn    2017 M     0.0000359       0.392        0.608 0.215      1462.
##  5 Abrar    2017 M     0.0000165       0.482        0.518 0.0353      608.
##  6 Adair    2017 M     0.0000452       0.548        0.452 0.0951     2255.
##  7 Adama    2017 M     0.0000132       0.398        0.602 0.203       701.
##  8 Adel     2017 M     0.0000445       0.577        0.423 0.153      1829.
##  9 Adi      2017 M     0.0000197       0.407        0.593 0.185      1137.
## 10 Adisa    2017 M     0.00000526      0.413        0.587 0.174       161.
## # ... with 909 more rows

Means for each numeric variable grouped by name:

fullnamesmean <- fullnamesmean %>% select(name, year, prop, male_share, 
    female_share, gap, fulltotal)
fullnamesmean

## # A tibble: 919 x 7
##    name     year       prop male_share female_share    gap fulltotal
##    <chr>   <dbl>      <dbl>      <dbl>        <dbl>  <dbl>     <dbl>
##  1 Aalijah 2008. 0.00000488      0.585        0.415 0.170       237.
##  2 Aamari  2010  0.00000370      0.564        0.436 0.128       147.
##  3 Aarin   1996. 0.00000599      0.588        0.412 0.176       705.
##  4 Aaryn   1997. 0.0000108       0.392        0.608 0.215      1413.
##  5 Abrar   2004. 0.00000704      0.482        0.518 0.0353      591.
##  6 Adair   1970. 0.00000943      0.548        0.452 0.0951     2172.
##  7 Adama   1999. 0.00000623      0.398        0.602 0.203       685.
##  8 Adel    1966. 0.0000109       0.577        0.423 0.153      1792.
##  9 Adi     1998. 0.00000881      0.407        0.593 0.185      1116.
## 10 Adisa   1999. 0.00000330      0.413        0.587 0.174       157.
## # ... with 909 more rows

Total number of occurrances for each name and names with maximum occurances

fullnamescount

## # A tibble: 919 x 2
##    name    `n()`
##    <chr>   <int>
##  1 Aalijah    34
##  2 Aamari     27
##  3 Aarin      71
##  4 Aaryn      82
##  5 Abrar      53
##  6 Adair     157
##  7 Adama      67
##  8 Adel      165
##  9 Adi        76
## 10 Adisa      26
## # ... with 909 more rows
…
Total distinct values for each variable:

fullnamesdistinct

##   name year sex  prop male_share female_share gap fulltotal
## 1  919  138   2 10353        919          919 919     25442

Least number of occurrances for each name in each year and the least common names overall:

fullnamesmin

## # A tibble: 42,044 x 8
## # Groups:   name [919]
##    name     year sex         prop male_share female_share   gap fulltotal
##    <chr>   <dbl> <chr>      <dbl>      <dbl>        <dbl> <dbl>     <dbl>
##  1 Aalijah  1994 F     0.00000257      0.585        0.415 0.170      232.
##  2 Aalijah  1995 F     0.0000026       0.585        0.415 0.170      232.
##  3 Aalijah  1999 F     0.00000257      0.585        0.415 0.170      232.
##  4 Aalijah  2001 F     0.00000455      0.585        0.415 0.170      236.
##  5 Aalijah  2002 F     0.0000029       0.585        0.415 0.170      233.
##  6 Aalijah  2003 F     0.00000299      0.585        0.415 0.170      233.
##  7 Aalijah  2004 F     0.00000298      0.585        0.415 0.170      233.
##  8 Aalijah  2005 M     0.00000564      0.585        0.415 0.170      239.
##  9 Aalijah  2006 F     0.00000228      0.585        0.415 0.170      232.
## 10 Aalijah  2007 F     0.00000378      0.585        0.415 0.170      235.
## # ... with 42,034 more rows
…
Median for each name for each numeric variable

fullnamesmedian

##   year     prop male_share female_share       gap fulltotal
## 1 1986 7.68e-06  0.5077381    0.4922619 0.1721365  1210.955

Standard Deviation for each name in each numeric variable.

fullnamessd <- fullnamessd %>% select(name, year, prop, male_share, 
    female_share, gap, fulltotal)

fullnamessd

## # A tibble: 919 x 7
##    name     year        prop male_share female_share   gap fulltotal
##    <chr>   <dbl>       <dbl>      <dbl>        <dbl> <dbl>     <dbl>
##  1 Aalijah  6.11 0.00000199           0            0     0      4.05
##  2 Aamari   4.75 0.00000129           0            0     0      2.68
##  3 Aarin   11.5  0.00000344           0            0     0      7.03
##  4 Aaryn   12.4  0.00000667           0            0     0     13.2 
##  5 Abrar    8.55 0.00000339           0            0     0      6.64
##  6 Adair   31.4  0.00000828           0            0     0     18.2 
##  7 Adama   12.4  0.00000290           0            0     0      5.91
##  8 Adel    35.5  0.00000778           0            0     0     10.7 
##  9 Adi     12.2  0.00000468           0            0     0      9.70
## 10 Adisa   11.8  0.000000853          0            0     0      1.53
## # ... with 909 more rows

Variance in each numeric variable grouped by name:

fullnamesvar <- fullnamesvar %>% select(name, year, prop, male_share, 
    female_share, gap, fulltotal)

fullnamesvar

## # A tibble: 919 x 7
##    name      year     prop male_share female_share   gap fulltotal
##    <chr>    <dbl>    <dbl>      <dbl>        <dbl> <dbl>     <dbl>
##  1 Aalijah   37.4 3.98e-12          0            0     0     16.4 
##  2 Aamari    22.5 1.68e-12          0            0     0      7.18
##  3 Aarin    133.  1.18e-11          0            0     0     49.4 
##  4 Aaryn    153.  4.45e-11          0            0     0    174.  
##  5 Abrar     73.0 1.15e-11          0            0     0     44.1 
##  6 Adair    988.  6.86e-11          0            0     0    331.  
##  7 Adama    153.  8.43e-12          0            0     0     35.0 
##  8 Adel    1262.  6.06e-11          0            0     0    115.  
##  9 Adi      149.  2.19e-11          0            0     0     94.1 
## 10 Adisa    139.  7.27e-13          0            0     0      2.33
## # ... with 909 more rows
…
